: 4384
fifty: 4
imperfect: 2
warrant: 2
sake: 2
hall: 1
engraffed: 1
embossed: 1
require: 2
Renege: 1
Pinion: 1
Dies: 3
pick: 1
half: 12
hang: 3
vengeance: 3
telling: 1
temper: 2
minds: 1
gold: 2
Dismissing: 1
hemlock: 1
spoke: 4
midway: 1
after: 13
Legitimate: 1
dowers: 2
a: 366
yourselves: 1
approves: 2
tatter: 1
d: 182
resume: 1
e: 5
c: 1
same: 10
legs: 4
i: 25
tyrannous: 1
address: 1
object: 3
n: 5
o: 38
salt: 1
hand: 26
the: 786
t: 43
Cover: 1
throw: 3
A: 51
plumed: 1
weeping: 1
violent: 2
razed: 1
thank: 8
thy: 141
Again: 2
good: 67
anchoring: 1
left: 8
bondage: 1
V: 6
straight: 5
salutations: 1
S: 1
Marry: 2
Light: 1
others: 6
laugh: 2
owes: 1
cliff: 2
che: 1
s: 265
I: 708
abated: 1
empty: 1
Fool: 73
gone: 17
Whom: 1
frustrate: 1
beacon: 1
rabble: 1
marjoram: 1
plenteous: 1
wantons: 1
supposed: 1
hark: 1
raging: 1
gorgeous: 2
throngs: 1
applied: 1
tis: 29
flown: 1
society: 1
patiently: 1
Unmerciful: 1
hard: 9
motive: 1
provided: 1
lend: 1
spoil: 1
making: 3
besides: 2
worser: 2
infirmity: 1
harm: 2
unspoke: 1
well: 56
tween: 2
erheard: 1
permit: 1
policy: 1
Dolphin: 1
forsooth: 1
severally: 3
suffered: 1
Age: 1
docks: 1
serious: 2
fierce: 4
block: 1
m: 1
madmen: 2
tie: 1
taking: 7
commission: 3
hate: 5
went: 1
struck: 3
conceit: 1
better: 26
thieves: 1
hast: 21
flow: 1
Transport: 1
hath: 52
reservation: 2
women: 3
save: 2
justicers: 1
Peruse: 1
protection: 1
toe: 1
matter: 15
trusty: 1
Draw: 4
woman: 9
walls: 1
top: 4
too: 32
noise: 3
have: 194
daylight: 1
spout: 2
contented: 1
loves: 2
Kent: 20
spirit: 6
frowning: 1
adultery: 1
additions: 1
walks: 1
firmament: 1
cheek: 2
Corruption: 1
blood: 12
trusts: 1
justicer: 2
bereaved: 1
constrains: 1
troth: 1
oldness: 1
All: 17
cow: 1
Else: 1
thousand: 3
dunghill: 2
graces: 2
pray: 18
turn: 13
honesty: 3
hare: 1
crawl: 1
hates: 2
picture: 1
upon: 37
Proper: 1
regard: 1
madman: 2
O: 82
cheap: 1
captives: 1
corky: 1
order: 1
bruise: 1
raise: 1
tower: 1
cod: 2
lad: 1
wert: 2
crave: 1
pernicious: 1
intrinse: 1
rails: 1
hated: 3
suspects: 1
pardon: 7
conflicting: 1
lest: 1
And: 144
witch: 1
employed: 1
Death: 2
loved: 8
were: 27
try: 1
anatomize: 1
Very: 2
obligation: 1
hatch: 1
Drew: 1
Hearing: 1
Bench: 1
troop: 2
became: 1
lay: 6
germens: 1
Brought: 1
produce: 2
holla: 1
censure: 2
condition: 2
capital: 1
generous: 1
times: 2
falchion: 1
cry: 9
Their: 5
That: 105
pother: 1
Fellow: 2
pillow: 1
Than: 16
spoken: 5
whence: 1
chatter: 1
Alarums: 1
barbarous: 2
incurr: 1
prey: 2
attire: 1
fairies: 1
wherein: 2
footed: 3
supply: 1
clamour: 3
FRANCE: 10
Then: 13
penning: 1
fitchew: 1
state: 10
law: 5
press: 2
accuser: 1
cares: 2
snatching: 1
element: 2
dumbness: 1
warring: 1
question: 7
impatience: 1
concealment: 1
graced: 1
courtesy: 4
erpaid: 1
caught: 2
each: 4
cue: 1
swells: 1
abhorr: 1
creating: 1
Are: 11
meads: 1
pack: 1
jewels: 1
Hear: 5
Marshal: 1
Angering: 1
disguised: 3
let: 45
jelly: 1
Art: 1
cut: 5
cup: 1
entertainment: 1
dread: 4
Pull: 1
weighed: 1
starve: 1
Thee: 4
clay: 1
tear: 3
quagmire: 1
moment: 1
less: 18
does: 12
opposite: 2
two: 23
desired: 1
Ask: 3
prevented: 1
stench: 1
Nature: 2
Against: 5
think: 22
presages: 1
moods: 1
rarity: 1
Phoebus: 1
piercing: 1
twould: 2
They: 15
Run: 1
casion: 1
mildews: 1
mistress: 8
speech: 9
watch: 1
quit: 3
clap: 1
Smulkin: 1
cub: 1
night: 39
thing: 21
Haply: 1
thine: 23
fashion: 3
demanded: 1
Know: 5
clipp: 1
smell: 6
Sessa: 1
lie: 7
Arm: 1
unable: 1
domestic: 1
smelt: 1
Court: 1
fellows: 2
shook: 1
There: 18
mongrel: 3
feathers: 1
blows: 4
Dinner: 1
chalky: 1
Search: 1
dogs: 4
bias: 1
glass: 4
This: 51
blooded: 2
These: 6
doubt: 1
verbal: 1
suited: 2
pluck: 5
services: 5
whereof: 3
rashness: 1
Madman: 1
full: 12
Tripping: 1
lecher: 2
away: 30
shoot: 1
banish: 5
lip: 2
mice: 2
house: 16
pity: 10
Detested: 1
lifting: 1
says: 6
stare: 1
toucheth: 1
assume: 1
gentleness: 1
roughness: 1
distaff: 1
Freedom: 1
cur: 2
bellow: 1
stars: 5
stumbled: 1
supper: 1
suspicion: 1
advised: 1
manage: 2
marvel: 4
detested: 2
Sisters: 1
canker: 1
spared: 1
dishonour: 1
fraught: 1
bluntness: 1
Fortune: 3
alight: 1
Seek: 3
louse: 1
Come: 38
revoked: 1
blinding: 1
starts: 1
required: 1
climb: 1
Gracious: 1
golden: 1
enter: 16
flowers: 2
remembered: 1
season: 1
threw: 1
Villain: 1
warmth: 1
bide: 1
destroy: 1
wretch: 4
titles: 1
goodman: 1
guessingly: 1
bids: 4
sorrows: 3
abjure: 1
Improper: 1
teem: 1
afar: 1
tenant: 3
merit: 2
pant: 1
opposites: 1
fordid: 1
Help: 4
Forced: 1
assure: 1
low: 5
geese: 1
manners: 4
three: 6
inheriting: 1
Could: 2
Thou: 45
loo: 2
wealth: 1
fury: 2
Expose: 1
thirty: 1
beadle: 1
means: 12
blown: 2
observants: 1
Found: 1
pain: 4
gracious: 1
gainst: 7
adversary: 2
aught: 4
contemplation: 1
Yields: 1
fellow: 27
cockney: 1
hound: 1
short: 4
madded: 1
None: 5
hanging: 1
door: 3
quick: 2
compact: 2
speedy: 4
doom: 2
outlaw: 1
friendly: 2
tell: 27
fetch: 1
blasting: 1
Degenerate: 1
flames: 1
Send: 1
shown: 2
husband: 11
shows: 2
Gives: 1
Yours: 1
merry: 1
majesty: 8
Like: 3
costard: 1
daughters: 29
keeps: 3
trumpets: 2
curiosity: 3
betters: 2
moons: 1
nimble: 2
done: 15
particular: 3
water: 8
Trumpets: 1
savour: 2
Requires: 1
tent: 4
tens: 1
redress: 1
Life: 1
whereso: 1
Say: 4
insulted: 1
banished: 3
entertain: 1
furr: 1
radiant: 1
gasted: 1
trowest: 1
Blow: 1
perceived: 3
Pointing: 3
Cost: 1
guarded: 1
declining: 1
tend: 2
day: 9
revenge: 2
whereto: 1
Wherefore: 5
tutors: 1
Drum: 1
part: 13
persuaded: 1
fellowship: 1
priests: 1
ears: 1
seeking: 1
Twixt: 1
Second: 4
third: 6
build: 2
hours: 3
Will: 17
gratitude: 1
terrors: 1
earl: 4
dost: 20
cheerless: 1
dearest: 2
fiery: 2
smiles: 1
unnumber: 1
further: 11
unknown: 1
contracted: 2
credulous: 1
doth: 15
path: 1
crack: 5
Whither: 1
dote: 1
finds: 4
ease: 1
Thus: 3
persuades: 1
shealed: 1
Tripp: 1
ample: 2
Albany: 9
pass: 6
bind: 2
Bad: 1
Offering: 1
sparks: 1
mild: 1
easy: 2
cords: 1
smiled: 1
Here: 13
entertained: 1
eclipses: 3
flakes: 1
eats: 2
See: 4
mile: 1
sport: 3
Began: 1
Set: 2
wolvish: 1
Weary: 1
bodies: 2
virtues: 2
Wipe: 1
infirmities: 1
brothels: 1
unpossessing: 1
brag: 1
Preferment: 1
breeches: 1
Cupid: 1
mine: 20
going: 8
business: 15
milk: 1
adjoining: 1
mind: 13
shoes: 1
past: 3
breathless: 1
reverence: 4
stage: 2
grumble: 1
composition: 2
repeals: 1
whipped: 7
desert: 1
borrow: 2
inch: 1
whose: 15
under: 8
Withold: 1
divorce: 1
wretches: 3
foxes: 2
die: 11
right: 7
taught: 1
allay: 1
carefully: 1
Bedlam: 3
anon: 1
down: 22
exhibition: 1
Confined: 1
fears: 1
hewgh: 1
habit: 1
villages: 1
wretched: 3
brows: 1
List: 1
unstate: 1
bird: 1
seasons: 1
fastened: 1
straw: 4
stealing: 1
Because: 3
brown: 1
month: 2
occasions: 1
expiration: 1
Your: 20
pawn: 2
forked: 1
Sit: 2
deserving: 2
colours: 5
distract: 1
rather: 10
adder: 1
journey: 1
divisions: 2
courtezan: 1
back: 12
arraign: 2
added: 1
did: 19
papers: 1
Tucket: 2
dialect: 1
title: 2
stocking: 1
foppish: 1
Sir: 21
expectation: 1
sways: 1
beggarly: 1
pound: 1
hideous: 2
company: 4
Bid: 4
prince: 5
Scythian: 1
stirs: 2
SCENE: 27
crazed: 1
whore: 4
Wise: 1
length: 1
custom: 1
apprehend: 2
Wilt: 1
conceals: 1
inherit: 1
fiend: 19
beach: 1
blanket: 1
bite: 2
grant: 1
She: 14
rigor: 1
knots: 1
dearer: 3
qualified: 2
brothers: 1
rememberest: 1
bred: 2
curst: 1
Effects: 1
worthy: 1
thick: 1
division: 3
relish: 1
worthier: 1
cadent: 1
Despite: 2
With: 31
abode: 1
Even: 1
fools: 5
text: 1
kindness: 3
dearly: 1
letters: 9
lying: 1
verity: 1
mourning: 1
Lady: 2
made: 20
benison: 2
mist: 1
field: 4
served: 2
being: 15
contents: 3
houseless: 2
finical: 1
stray: 1
legitimate: 4
KENT: 156
lym: 1
cozener: 1
bags: 1
tailor: 3
serves: 1
skip: 2
curse: 4
sheets: 2
brewers: 1
travell: 2
stamp: 1
mad: 18
grudge: 1
thunderbolts: 1
herald: 5
brim: 1
nurse: 1
comest: 1
stand: 18
forbear: 3
crime: 1
leisure: 2
mire: 1
mar: 5
knows: 4
may: 45
fear: 16
babe: 1
lacks: 1
blest: 2
forward: 1
besort: 1
obscured: 1
bless: 3
meiny: 1
princes: 2
spectacles: 1
bandy: 2
lendings: 1
warlike: 1
discreet: 1
Loyal: 1
twenty: 6
feel: 10
Hearty: 1
perjured: 1
stale: 1
main: 2
feet: 2
revenue: 4
peascod: 1
subject: 3
maid: 4
monopoly: 1
credit: 1
terrible: 2
CURAN: 6
waste: 1
alter: 1
syllable: 1
comedy: 1
bearing: 2
Arms: 1
poisoned: 1
becomes: 1
numb: 1
messengers: 2
woes: 2
Fairest: 1
Gentle: 1
Behold: 2
twas: 3
Obey: 1
dst: 2
Unhappy: 1
conceive: 1
stain: 1
breath: 7
men: 16
usurers: 1
hither: 15
threats: 1
bald: 1
justification: 1
cries: 2
use: 14
nursing: 1
man: 81
worthied: 1
Parted: 1
opposed: 2
Necessity: 1
Jug: 1
Burn: 1
Methought: 1
map: 1
Decline: 1
due: 4
wakes: 2
clotpoll: 1
waking: 1
lodge: 1
dry: 3
met: 6
unseal: 1
invention: 1
mercy: 5
dearth: 1
maledictions: 1
inform: 6
about: 11
tithing: 2
sorrow: 7
danger: 6
commit: 2
Croak: 1
happier: 1
character: 2
whining: 1
scornful: 1
known: 11
virtuous: 1
brow: 1
meaning: 2
stick: 2
tales: 2
curs: 1
stake: 2
murmuring: 1
erlook: 1
height: 1
injunction: 1
sleeps: 2
Instantly: 1
untented: 1
singing: 2
depend: 1
breaches: 1
Smile: 1
attaint: 1
malt: 1
benefit: 1
quality: 7
balm: 2
foulness: 1
Must: 5
miscreant: 1
beaten: 2
oppressed: 1
sincere: 1
miscarried: 1
invested: 1
make: 46
Pushes: 1
shelter: 1
wicked: 3
remember: 6
received: 5
long: 13
into: 18
glance: 1
nought: 2
believe: 3
boots: 1
womb: 1
mix: 1
Ajax: 1
But: 50
cuts: 1
star: 3
prosper: 3
middle: 4
childhood: 1
stiff: 1
though: 15
wolf: 4
bans: 2
heavenly: 2
many: 12
valour: 2
stay: 7
reverend: 2
puissant: 1
hoping: 1
Spare: 1
fell: 5
appear: 7
vurther: 1
Acquaint: 1
seeks: 1
wool: 1
animal: 1
suffering: 1
invest: 1
cure: 2
deniest: 1
nakedness: 1
waked: 3
wrinkles: 1
darker: 1
sever: 1
bark: 3
loop: 1
dog: 12
kennel: 1
Spake: 1
bare: 5
wood: 1
sense: 5
beard: 8
wont: 2
wenches: 1
bears: 3
bridges: 1
look: 16
conquest: 1
fortnight: 1
felt: 3
myself: 10
pestilent: 1
monkeys: 1
ingratitude: 2
flying: 1
converse: 1
farewell: 9
forces: 1
attempting: 1
Vaunt: 1
allow: 2
needed: 1
childed: 1
lord: 97
carbonado: 1
knocks: 1
proper: 1
Centaurs: 1
bitter: 4
speed: 3
beast: 3
Time: 1
allot: 1
stocks: 11
above: 5
precipitating: 1
tread: 1
interest: 1
Safer: 1
Flourish: 3
speeches: 2
Wast: 1
politician: 1
apply: 1
Horrible: 1
Late: 1
beats: 1
Till: 5
GLOUCESTER: 143
Burning: 1
money: 4
slain: 3
richer: 2
patron: 2
mare: 1
step: 2
revolt: 1
skin: 1
temperance: 1
plucks: 1
assurance: 2
conjuring: 1
base: 8
whole: 1
Maugre: 1
Beware: 1
gentlewoman: 1
squires: 1
spotted: 1
seven: 3
lost: 7
cozen: 1
stealth: 2
fickle: 1
mark: 4
profits: 1
still: 23
common: 3
worm: 2
Child: 1
dizzy: 1
work: 5
packs: 1
lose: 6
Smite: 1
stile: 1
books: 1
beams: 1
bawds: 1
uncaught: 1
mate: 2
First: 7
mutinies: 1
Infect: 1
love: 50
toward: 7
Trumpet: 1
wore: 1
tongue: 5
thief: 3
Cordelia: 22
confederacy: 1
likes: 1
enjoy: 3
invades: 1
slave: 13
beastly: 1
loss: 1
queasy: 1
ourselves: 1
throwing: 1
Avaunt: 1
eat: 3
interess: 1
ear: 6
loud: 1
gorge: 1
reward: 2
repent: 1
counterfeiting: 1
open: 4
bawd: 1
Tigers: 1
sting: 1
degenerate: 1
word: 13
stink: 1
gored: 1
Tray: 1
soldier: 1
altogether: 3
opinion: 3
hasty: 1
Allows: 1
stir: 2
ebb: 1
dimensions: 1
injuries: 3
craft: 1
devour: 1
pretence: 2
zwaggered: 1
aged: 3
knapped: 1
subdued: 2
vex: 1
discover: 1
pebbles: 1
appointed: 1
haste: 4
provision: 3
coward: 3
Can: 2
assaulted: 1
thrust: 1
weaves: 1
Mean: 1
apple: 1
spherical: 1
stol: 1
seems: 5
winter: 1
lists: 1
mysteries: 1
Beat: 1
elder: 1
Points: 1
enmity: 1
saucily: 2
Since: 4
derogate: 1
Neither: 1
riots: 2
Camelot: 1
grave: 3
toad: 2
advantage: 1
Singe: 1
Service: 1
choler: 1
whispered: 1
mun: 1
jovial: 1
untuned: 1
hurtless: 1
Attendants: 8
retinue: 1
fairs: 1
beaks: 1
year: 4
hotly: 1
egg: 4
secret: 1
command: 3
prepared: 1
desperate: 2
leading: 1
hollowness: 2
neat: 1
near: 10
understanding: 1
dealing: 1
hands: 6
contains: 1
humbled: 1
stop: 2
returns: 2
voice: 5
guess: 1
beware: 1
detain: 1
mum: 1
Am: 2
among: 3
saved: 2
Ten: 1
Juno: 1
impetuous: 1
The: 124
swimming: 1
Authority: 1
nicely: 2
clamorous: 1
As: 28
At: 5
An: 7
Been: 1
naughty: 1
basest: 3
Ay: 18
antipathy: 1
music: 2
Takes: 1
behavior: 1
descend: 1
Be: 16
stung: 1
learn: 4
Thy: 20
sleep: 8
descent: 1
neck: 3
By: 22
tearing: 1
sayest: 1
gavest: 3
sweet: 9
exploit: 1
Tis: 24
Soldiers: 7
evidence: 1
Take: 12
trespasses: 1
Monsieur: 1
amity: 1
Ch: 2
conception: 1
Where: 25
Putting: 1
spring: 2
handy: 1
impossibilities: 1
waterish: 1
knave: 19
throwest: 1
unmannerly: 1
kindle: 1
serpent: 3
cruel: 3
faint: 1
walking: 1
sizes: 1
fitness: 1
hurricanoes: 1
mayst: 1
Do: 23
kindly: 1
gather: 1
contemns: 1
risen: 1
cocks: 1
elf: 1
hardly: 1
Beweep: 1
often: 4
gazing: 1
During: 1
private: 1
ride: 4
desperately: 1
liest: 2
Looking: 1
stretch: 2
engine: 1
surrender: 1
anguish: 2
end: 5
companion: 1
forty: 1
vor: 2
wouldst: 5
Laying: 1
vexes: 1
rich: 4
shouldst: 4
praise: 2
vouch: 1
Talk: 1
least: 6
Lipsbury: 1
betray: 1
vow: 1
noted: 1
Hold: 4
sweat: 1
swear: 6
contempt: 2
bellyful: 1
leave: 8
rises: 1
occupation: 1
Go: 17
told: 9
moral: 1
lethargied: 1
called: 1
Ha: 8
brave: 1
slew: 1
ague: 1
judge: 1
proceedings: 1
darkness: 4
He: 44
cowish: 1
pilferings: 1
crosses: 1
tenderly: 1
shape: 5
contradict: 1
II: 9
wrathful: 1
forth: 13
allegiance: 1
themselves: 5
Some: 8
IV: 11
Too: 2
Tom: 23
graves: 1
If: 65
weapons: 1
turns: 3
Exeunt: 33
Alarum: 2
Madam: 6
Bear: 3
believed: 1
Inform: 2
In: 30
Flibbertigibbet: 2
It: 19
Mend: 1
swell: 1
ere: 6
rights: 3
stelled: 1
sharp: 3
Meantime: 1
boasted: 1
stored: 1
Lag: 1
snuffs: 1
Is: 27
deservings: 1
shortens: 1
flies: 1
Soon: 1
quench: 1
shaft: 1
shake: 7
displeasure: 7
dawning: 1
Lay: 1
disorders: 2
tomb: 1
naked: 4
Rather: 1
wrote: 2
gates: 1
need: 11
motley: 1
slightly: 1
La: 1
beguiled: 2
punished: 1
against: 18
below: 3
took: 6
new: 5
Enough: 1
remedies: 1
shall: 85
Truly: 1
tameness: 1
followers: 3
greediness: 1
tribe: 1
True: 2
endow: 1
detector: 1
spied: 1
musty: 1
shame: 10
ignobly: 1
Cry: 2
estate: 1
nightingale: 1
Canst: 2
Propinquity: 1
undivulged: 1
Mere: 1
exalt: 1
running: 2
coxcombs: 3
Gallow: 1
trice: 1
Ne: 1
led: 10
OF: 15
spies: 2
shalt: 11
undertake: 1
sojourn: 3
relieve: 1
employment: 2
Doctor: 12
Tut: 1
Of: 21
woeful: 1
cotes: 1
appetite: 2
whites: 1
Let: 43
special: 1
territory: 1
bestirred: 1
Or: 16
No: 60
My: 56
ring: 1
farther: 2
France: 22
cheese: 1
shift: 1
summoners: 1
remorse: 1
fully: 1
Howl: 1
couch: 1
super: 1
shoulder: 1
untender: 1
voices: 1
toss: 1
countries: 1
OSWALD: 53
whirlipool: 1
trick: 1
mystery: 1
fearfully: 1
himself: 8
fantastically: 1
silks: 1
deserved: 1
continent: 1
wanted: 1
rotten: 1
shines: 2
waved: 1
dandy: 1
summon: 1
fetches: 1
schoolmasters: 1
amorous: 1
showest: 1
On: 9
eye: 12
gray: 3
affliction: 2
enemy: 6
dissolutions: 1
obeyed: 1
ripe: 1
Royal: 2
poison: 3
forgiveness: 2
horror: 2
black: 5
silly: 1
bliss: 1
Lie: 1
Sa: 1
whoremaster: 1
Frateretto: 1
Detains: 1
absolute: 1
Ho: 1
Yield: 1
slip: 1
So: 28
countenance: 4
Persuade: 2
suck: 1
harder: 4
manifest: 1
another: 9
sterility: 1
defiles: 1
trial: 2
Find: 2
squints: 1
stripp: 1
presently: 5
white: 10
To: 142
huge: 1
didst: 5
sounded: 2
Filths: 1
sovereign: 1
Truth: 1
town: 1
benediction: 3
cullionly: 1
maintain: 4
pined: 1
seeming: 2
Servants: 9
ignorance: 1
servants: 3
VI: 2
trumpet: 13
leads: 1
such: 39
Up: 1
raiment: 1
wagtail: 1
physic: 1
blind: 5
Re: 11
import: 1
summit: 1
perfume: 1
drops: 1
trifle: 3
conclusion: 1
button: 1
Sleepest: 1
not: 266
remain: 3
venomously: 1
dropp: 1
boast: 1
now: 53
rack: 1
nearly: 1
war: 2
aloud: 1
grew: 3
grey: 1
Trust: 1
next: 1
pitiful: 1
nay: 1
wilful: 1
remainder: 1
summons: 1
Within: 2
window: 1
battles: 1
butterflies: 1
play: 4
fought: 1
foes: 2
quickly: 3
censured: 1
Break: 1
when: 39
flame: 1
copulation: 1
issues: 1
instruments: 1
catch: 1
might: 9
give: 20
treason: 4
endured: 4
Hobbididence: 1
Revoke: 1
lives: 9
Strives: 1
green: 1
double: 1
newt: 1
horrid: 3
liver: 1
Losses: 1
lowest: 1
Hence: 2
way: 27
suit: 1
comfortable: 2
concealing: 1
feelingly: 1
ladies: 2
study: 3
fogs: 2
villains: 2
liege: 2
portion: 1
bastard: 7
youngest: 3
differences: 2
dower: 2
gain: 1
angler: 1
Led: 1
what: 65
We: 19
memories: 1
spaniel: 1
physician: 1
Five: 1
Sorrow: 1
samphire: 1
farms: 1
unprovided: 1
Fair: 1
relieved: 2
wet: 2
Alive: 1
wrong: 9
counsel: 4
Speak: 12
great: 26
Crown: 1
nor: 28
porridge: 1
impose: 1
rags: 3
sides: 3
greet: 1
Rule: 1
certain: 5
cohorts: 1
heads: 3
grim: 1
stuff: 1
Intelligence: 1
pleased: 2
rage: 8
widow: 2
fed: 1
wanton: 1
songs: 1
fee: 1
used: 3
arrest: 1
heretofore: 1
Sleeps: 1
ruinous: 1
dice: 1
Without: 2
Grace: 1
provoke: 1
wax: 1
wed: 1
suns: 1
bootless: 1
whip: 1
strain: 2
reprovable: 1
paramoured: 1
modest: 2
hunt: 1
sweeten: 1
despised: 2
visible: 1
hangs: 1
sung: 1
rail: 2
threaten: 1
fen: 1
effects: 5
choleric: 1
Turlygod: 1
far: 11
gait: 2
keep: 16
outside: 1
rain: 11
drinks: 1
unbonneted: 1
who: 36
effect: 1
crust: 1
why: 12
faith: 4
perceive: 2
presented: 1
along: 1
damned: 1
Merlin: 1
alone: 8
win: 1
sprigs: 1
fares: 2
malady: 1
thankfully: 1
coining: 1
lawyer: 1
Until: 2
wit: 7
gale: 1
ungracious: 1
gall: 2
market: 1
From: 11
Nuncle: 1
oyster: 1
deformity: 1
VII: 2
traitorous: 1
Obidicut: 1
visit: 1
nobly: 1
unfold: 1
Stocks: 1
Reverbs: 1
perpendicularly: 1
thankless: 1
parent: 1
Storm: 7
dies: 1
hearted: 5
ALBANY: 68
equity: 1
Escaped: 1
fit: 11
fix: 3
Armed: 1
hush: 1
giant: 1
fie: 4
pension: 1
fond: 3
rank: 3
saucy: 1
neglect: 3
addition: 4
sure: 8
forfended: 1
grow: 6
ah: 1
perdy: 1
honest: 7
pitiless: 1
an: 41
extend: 1
rake: 1
as: 94
Fall: 2
at: 57
am: 84
former: 1
Pillicock: 2
web: 1
consideration: 1
cuckoo: 2
hurt: 5
be: 155
hawthorn: 2
ay: 3
perdu: 1
breach: 1
parings: 1
clothier: 1
Stocking: 1
proceeding: 1
brother: 23
bring: 15
whom: 10
borne: 3
Spit: 1
scarcely: 4
breaks: 2
tooth: 3
suum: 1
commodities: 1
prove: 8
frank: 1
wills: 1
ch: 1
behold: 3
apish: 1
kibes: 1
breathe: 1
fold: 1
familiar: 1
Poor: 11
by: 69
food: 6
Fare: 4
Father: 1
apace: 2
brothel: 1
quicken: 1
Better: 3
Sometime: 1
Sure: 2
de: 6
vent: 1
Alack: 13
Giving: 4
looks: 6
thunder: 7
fore: 1
woe: 2
methought: 1
strangeness: 1
rare: 1
do: 94
Did: 4
gorged: 1
Cried: 1
needs: 6
looking: 2
image: 3
which: 44
er: 22
fourteen: 1
never: 26
en: 3
affirm: 1
worsted: 1
news: 7
knife: 2
thoughts: 3
manhood: 2
Makes: 1
ford: 1
pinch: 1
faintly: 1
piece: 6
charge: 3
radiance: 1
fa: 1
burst: 2
contraries: 1
fops: 1
foh: 1
mightily: 1
necessity: 2
tears: 9
briefness: 1
recreant: 1
usurp: 1
for: 125
marble: 1
origin: 1
garb: 1
mistaken: 1
fool: 47
fox: 3
content: 4
oily: 1
overture: 1
oak: 1
skill: 1
trouble: 4
frame: 2
halcyon: 1
nether: 2
Pour: 1
divide: 1
hovel: 7
covert: 1
rats: 2
attended: 1
contemn: 2
Goose: 1
Though: 7
go: 41
sudden: 1
unfee: 1
Although: 2
em: 8
rash: 2
fork: 1
justly: 3
thwart: 1
dally: 1
form: 2
publish: 2
pinched: 1
gate: 4
ha: 6
Appear: 1
aidant: 1
bobtail: 1
whipp: 1
False: 2
ho: 12
very: 21
plot: 3
peace: 6
foul: 15
feather: 1
lunatic: 2
fly: 5
Farewell: 2
four: 1
thence: 1
if: 47
violently: 1
fro: 1
likely: 1
issue: 4
metal: 1
Beating: 1
upbraids: 1
it: 173
is: 196
lamentable: 1
dejected: 1
Captains: 1
Man: 12
cheeks: 3
Ready: 1
gave: 11
evasion: 1
else: 10
prophecy: 2
become: 2
noses: 2
lawful: 3
alteration: 1
semblance: 1
strings: 1
subscription: 1
amplify: 1
peril: 1
digest: 1
vassal: 1
avouched: 1
Naughty: 1
Use: 2
suggestion: 1
off: 18
draw: 14
knee: 1
places: 1
Hecate: 1
la: 1
Exit: 45
Exasperates: 1
Horses: 1
ld: 10
wooden: 2
fum: 1
oft: 6
fur: 1
ll: 90
lt: 5
rascal: 6
Dry: 1
while: 2
Read: 2
second: 1
that: 258
boarish: 1
me: 229
festinate: 1
claim: 1
than: 51
disposition: 5
mi: 1
locked: 1
porter: 1
orbs: 1
remediate: 1
fasten: 1
Alas: 1
fittest: 1
lance: 1
Curan: 1
jarring: 1
cowards: 1
fourscore: 1
charms: 2
was: 46
dirt: 1
my: 402
wrench: 1
May: 9
in: 273
hateful: 1
possesses: 2
villanous: 1
dream: 1
ne: 4
hourly: 3
malice: 1
Post: 1
essay: 1
Met: 1
heat: 3
no: 94
unfed: 1
furrow: 1
careful: 1
Suspend: 1
Men: 2
head: 23
oil: 1
perchance: 4
fight: 5
on: 101
Reads: 3
determine: 2
lenders: 1
Stretch: 1
Modo: 2
torches: 2
Duke: 8
drew: 2
confer: 1
wrought: 1
flowing: 1
intelligent: 2
Commit: 1
luxury: 1
ditch: 1
prediction: 2
parricides: 1
cock: 3
whilst: 1
bo: 1
wholesome: 2
kept: 1
faints: 1
guardians: 1
criest: 1
convenience: 1
brief: 3
or: 50
rescue: 1
feeling: 3
venge: 1
hear: 22
tongues: 2
proclamation: 1
amities: 1
banners: 1
Remember: 2
tripped: 2
hissing: 1
withdraw: 1
bewray: 2
forks: 1
thee: 135
diseases: 1
promised: 1
speaking: 3
discerns: 1
Reverse: 1
then: 34
re: 2
CORNWALL: 63
follows: 5
throughly: 1
twelve: 1
belly: 2
ancient: 5
rt: 1
betwixt: 4
sa: 3
seen: 13
unsubstantial: 1
seem: 11
toasted: 1
oppress: 1
lecherous: 1
seek: 16
eldest: 2
Saddle: 1
adore: 1
conjunct: 2
pierce: 3
so: 113
st: 29
noble: 18
closet: 2
Call: 5
abominable: 1
one: 40
started: 1
heed: 2
Quickly: 1
oh: 1
they: 51
derides: 1
ta: 2
Plate: 1
single: 1
th: 1
tamely: 1
acquaint: 1
to: 440
Came: 1
allowance: 2
joint: 1
goodliest: 1
Restoration: 1
seal: 1
Adultery: 1
Interest: 1
biting: 1
ruled: 2
smokes: 1
brand: 2
up: 32
Himself: 2
hides: 1
old: 45
lands: 1
divine: 1
enkindle: 1
oppose: 2
smiling: 1
them: 53
entreaty: 1
bluntly: 1
Please: 1
this: 187
upright: 1
sees: 2
know: 79
towns: 1
Shunn: 1
Bold: 1
ope: 1
support: 3
avouch: 1
Another: 1
praises: 1
region: 1
Combine: 1
ingenious: 1
prophesy: 1
reciprocal: 1
yoke: 1
he: 146
cold: 15
pure: 1
thin: 1
changed: 5
curfew: 1
indisposed: 1
changes: 1
we: 69
country: 2
gad: 1
monster: 3
gap: 1
prophets: 1
heir: 1
slayer: 1
wide: 2
reading: 1
ceremonious: 1
Hopdance: 1
uncovered: 1
deeper: 1
teach: 6
succeed: 1
debosh: 1
machination: 1
fruitful: 1
valiant: 2
dismantle: 1
necessary: 1
Beneath: 1
lies: 3
breaking: 1
dame: 2
ye: 5
hell: 3
troops: 1
devils: 1
scant: 2
practise: 4
Horns: 3
terms: 2
asleep: 3
proof: 4
furnishings: 1
held: 1
mildness: 1
presence: 2
Pursue: 1
mightst: 2
nails: 3
oaths: 1
Blasts: 1
exist: 1
come: 50
churches: 1
exact: 1
Show: 1
Those: 2
zo: 1
plagues: 2
life: 35
portable: 1
distribution: 1
wife: 7
couriers: 1
our: 96
cope: 1
dart: 1
More: 6
eminence: 2
noon: 3
ghost: 1
foins: 1
get: 7
none: 8
Either: 2
scape: 5
course: 14
barber: 1
Kill: 1
rivers: 1
power: 16
confess: 2
praised: 2
asses: 1
poorest: 2
precious: 4
robed: 1
elbows: 1
brain: 2
thou: 184
help: 9
amazed: 1
out: 68
owe: 1
buttered: 1
snail: 1
force: 1
conferr: 1
mingle: 1
blot: 1
Bore: 1
owl: 1
own: 25
reveal: 1
sound: 9
Judicious: 1
cool: 1
drum: 9
Vex: 1
interlude: 1
hospitable: 1
rustling: 1
indignation: 1
Most: 11
Kind: 2
King: 3
bearer: 1
create: 1
discernings: 1
Touches: 1
comforts: 2
blow: 2
Halloo: 1
World: 1
curious: 1
Mum: 1
climbing: 1
yond: 4
creatures: 1
Oppressed: 1
brach: 2
sent: 5
Fathom: 1
unbolted: 1
ducking: 1
proposed: 1
self: 6
proud: 5
send: 8
dare: 5
Both: 4
here: 60
scald: 1
necessities: 1
note: 4
Reason: 1
kinder: 1
hers: 4
waters: 1
us: 51
intends: 2
challenged: 1
dark: 7
helm: 2
affairs: 1
nose: 3
will: 113
dragon: 2
privily: 1
oats: 1
follow: 17
intent: 6
purposes: 3
revenues: 1
woundings: 1
According: 1
hadst: 5
assured: 2
ground: 2
wretchedness: 1
servest: 1
ounce: 1
Shut: 3
wild: 4
challenge: 2
daub: 2
lily: 1
skies: 2
Dukes: 1
shrill: 1
Think: 3
corn: 3
purpose: 11
torment: 1
your: 205
these: 33
wilt: 6
deeply: 1
esperance: 1
begins: 3
Methinks: 7
epileptic: 1
stratagem: 1
without: 6
purposed: 2
sovereignty: 1
Thine: 1
Therefore: 4
lick: 1
of: 447
felicitate: 1
sister: 33
Opposed: 1
unconstant: 1
wins: 1
groom: 1
thus: 22
revives: 1
neutral: 1
Knowing: 1
devise: 1
Having: 1
lion: 2
wing: 1
much: 30
Shows: 1
wind: 11
wine: 1
arrives: 1
poise: 1
sights: 1
miseries: 2
airs: 1
youth: 2
obedient: 1
defence: 1
masters: 2
concluded: 1
misery: 4
lights: 1
Consider: 1
licensed: 1
ertake: 1
sets: 1
sharper: 1
tempest: 4
flight: 1
lameness: 1
cackling: 1
faced: 1
wipe: 1
speaks: 3
lips: 3
days: 3
folly: 3
arch: 1
forests: 1
disguise: 1
faces: 2
yours: 4
undone: 1
wrap: 1
adopted: 1
Holla: 2
badness: 2
disbranch: 1
roaring: 2
sworn: 3
deadly: 2
wise: 8
wish: 2
opposeless: 1
pah: 2
ambition: 1
pat: 1
Pluck: 2
avert: 1
hearts: 4
vicious: 2
reports: 1
slower: 1
unnaturalness: 1
list: 1
strange: 10
rivals: 1
got: 3
lack: 1
About: 1
murder: 7
Dear: 2
fated: 1
treasury: 1
success: 1
authority: 3
creature: 3
prison: 4
Above: 1
line: 1
ruffian: 1
tadpole: 1
oath: 4
methinks: 1
young: 10
Over: 1
remove: 1
wisdom: 9
live: 13
sloth: 1
ventured: 1
forlorn: 1
engender: 1
intend: 3
Report: 1
lodging: 2
wits: 10
victory: 1
sustaining: 1
plaited: 1
Allow: 2
perform: 1
sessa: 1
cowardly: 1
with: 175
taint: 1
Filial: 1
biding: 1
complaint: 1
enormous: 1
there: 57
lady: 22
named: 2
bleeding: 2
Nay: 8
cutter: 1
entire: 1
approach: 2
flashes: 1
moiety: 1
afore: 1
write: 4
Affliction: 1
wren: 1
heaved: 1
pen: 1
Brother: 2
loyalty: 2
rivall: 1
period: 2
extremest: 1
wage: 2
birth: 1
dismiss: 1
confirmation: 1
heaven: 9
ever: 20
loving: 2
unhappy: 1
jointly: 1
imaginations: 1
shadowy: 1
even: 12
despair: 3
afflict: 1
champion: 1
hundred: 9
victor: 1
folds: 1
instant: 7
Intelligent: 1
queen: 5
service: 6
twixt: 3
doubted: 1
soliciting: 1
laid: 1
opportunities: 1
garments: 4
writ: 4
verge: 2
Beloved: 2
delivered: 1
messenger: 4
Sick: 1
sallets: 1
twain: 4
proceed: 2
almost: 4
equally: 1
chide: 1
Lurk: 1
buoy: 2
sapient: 1
infirm: 2
manner: 2
Repose: 1
suits: 1
names: 3
harmful: 2
DUKE: 3
discommend: 1
servile: 1
wake: 3
judgment: 6
twill: 2
pin: 2
whether: 4
charity: 4
Third: 4
beneath: 1
suspend: 1
Ere: 5
pit: 1
terror: 1
surge: 1
affected: 2
sway: 3
loins: 2
unremoveable: 1
snow: 2
pleasures: 2
army: 5
remembers: 1
Approach: 1
evil: 4
arms: 10
vanquish: 1
lake: 1
rising: 1
replied: 1
bush: 1
tempt: 1
cause: 13
afoot: 2
wail: 1
govern: 3
restoring: 1
perused: 1
volk: 1
sorely: 1
lances: 1
Blanket: 1
pursue: 1
busy: 1
vulgar: 1
convey: 4
attending: 1
catastrophe: 1
land: 7
working: 1
redeem: 1
sacrifices: 1
lanced: 1
burn: 2
tied: 3
follower: 2
kicked: 1
burning: 2
doubtful: 2
obey: 5
labours: 2
conduct: 2
bury: 1
wall: 4
changeable: 1
walk: 3
Blanch: 1
stock: 2
ceases: 1
Ourself: 1
decay: 2
pocket: 1
liberty: 2
Ingrateful: 1
crowns: 3
lesser: 1
reposal: 1
eels: 1
marry: 5
Deny: 1
sufferance: 1
meeting: 2
landed: 2
wickedness: 2
recounting: 1
welcome: 5
want: 7
bravely: 1
offend: 4
compounded: 1
must: 44
demonstration: 1
fiends: 2
grieve: 1
understand: 3
resign: 1
sophisticated: 1
pew: 1
Would: 9
pell: 1
circle: 1
diligent: 1
gilded: 3
Seeing: 1
framed: 1
ward: 1
difference: 4
nobles: 2
EDGAR: 126
retention: 1
escape: 1
lark: 1
theft: 1
prize: 2
gives: 7
entirely: 1
dispositions: 2
diffidences: 1
standing: 1
withal: 1
disquantity: 1
bethought: 1
till: 15
knight: 1
Crack: 1
peep: 1
pent: 1
friendship: 2
Should: 7
attend: 5
discarded: 1
secure: 1
Through: 2
rageth: 1
found: 11
Fetch: 3
lightnings: 1
school: 1
preserved: 1
receive: 4
Fourscore: 1
hap: 1
trundle: 1
has: 11
wast: 4
incite: 1
Hound: 1
hay: 1
things: 10
Heaven: 1
given: 6
anointed: 1
flattered: 1
forsaken: 1
pastime: 1
last: 8
Spoke: 1
weight: 1
crimes: 2
Nor: 12
secrets: 1
casualties: 1
flatterer: 1
Not: 16
warm: 5
guilty: 1
measure: 2
guilts: 1
lash: 1
Now: 26
rarest: 1
child: 12
divided: 1
Enter: 63
playing: 1
carbuncle: 1
frontlet: 1
swim: 1
Singing: 3
impossible: 1
tike: 1
wars: 1
Lending: 1
maidenliest: 1
trespass: 1
harshness: 1
heavens: 9
weapon: 1
vortnight: 1
dried: 1
ends: 1
Striking: 2
yes: 3
ravish: 1
settling: 1
warp: 1
yet: 45
colour: 1
Mastiff: 1
Far: 2
Jove: 1
time: 28
Cunning: 1
wither: 1
wash: 1
heinous: 1
late: 11
wages: 1
yea: 1
prisoner: 2
shadow: 3
dominions: 1
striving: 1
happy: 6
sickness: 1
schoolmaster: 1
Bless: 5
bolds: 1
her: 126
offence: 7
Striving: 1
hey: 1
deprive: 1
put: 17
stoops: 1
whoreson: 5
Cannot: 4
buzz: 1
Prosper: 1
honours: 3
Women: 1
grows: 3
rotundity: 1
having: 2
awhile: 4
wawl: 1
palaces: 1
foot: 6
dowerless: 2
light: 4
tiny: 1
infection: 1
slaves: 1
stubborn: 1
enraged: 1
Being: 1
redresses: 1
Rowland: 1
ways: 2
Whilst: 1
contentious: 1
gowns: 1
grown: 3
Monster: 1
hefted: 1
Almost: 2
deficient: 1
Wantest: 1
Theban: 1
vows: 1
organs: 1
chair: 2
henceforth: 1
desire: 3
suffers: 3
sword: 17
Loved: 1
Invades: 1
Few: 1
Quite: 1
garden: 1
choice: 4
hid: 3
small: 8
Unburthen: 1
stomach: 1
before: 16
shamed: 1
meets: 1
hit: 1
Was: 5
him: 198
headier: 1
caves: 1
beat: 3
major: 1
bear: 15
his: 193
consider: 1
potential: 1
whither: 1
flatter: 2
Who: 39
Why: 42
history: 1
tree: 2
laws: 1
Lear: 21
square: 1
coxcomb: 4
impertinency: 1
twice: 4
gross: 2
freer: 1
sustain: 4
altitude: 1
foppery: 1
thrusting: 1
their: 60
values: 1
merits: 1
swore: 1
hurts: 1
imports: 1
pretty: 3
beguile: 1
wolves: 1
shepherd: 1
general: 4
Idle: 1
worships: 1
mistook: 1
EDMUND: 99
sounds: 1
Hail: 3
point: 4
dotage: 3
philosopher: 3
darkling: 1
Fie: 3
deserve: 2
hereafter: 1
Only: 2
banner: 1
encounter: 1
garters: 1
bemadding: 1
mean: 5
approve: 2
craves: 2
carry: 6
valued: 2
neither: 7
account: 1
glad: 3
meat: 1
attendance: 1
monstrous: 3
been: 29
sometime: 3
Makest: 1
surfeit: 1
innocent: 1
Athenian: 1
safer: 1
visage: 2
conqueror: 1
shanks: 1
Produce: 1
lately: 1
diligence: 2
traitor: 13
murderous: 2
goatish: 1
hunting: 1
mothers: 1
you: 404
knowledge: 4
soft: 2
Fled: 1
Bethink: 1
loyal: 1
borest: 1
venture: 1
court: 4
sectary: 1
entreat: 6
Flew: 1
Gods: 1
hog: 1
stinking: 1
begs: 1
shiver: 1
comes: 22
begg: 1
vanity: 1
thereto: 1
honourable: 2
hot: 5
abuses: 1
how: 25
Fly: 1
fordone: 1
Enforce: 1
Caius: 1
hitherward: 1
erwatch: 1
assembly: 1
passio: 1
spare: 1
simpering: 1
spreads: 1
tail: 2
Darest: 1
griefs: 1
Woe: 1
tells: 1
meanest: 1
Half: 2
vulture: 1
advantages: 1
answer: 17
chin: 2
calls: 5
steward: 2
grossly: 1
purse: 6
march: 2
thrive: 5
abused: 7
KING: 243
dispatch: 4
meet: 8
Rising: 1
haunts: 1
cutpurses: 1
heretics: 1
foster: 1
promise: 1
Humanity: 1
glib: 1
tall: 1
enguard: 1
serviceable: 2
train: 9
hold: 17
Gone: 1
talk: 6
appertains: 1
Fools: 2
sometimes: 1
For: 31
blame: 8
rosemary: 1
Turn: 2
confusion: 2
take: 53
some: 31
vault: 1
Hang: 2
waiting: 1
Turk: 1
blank: 1
session: 1
slanders: 1
owest: 2
caitiff: 1
executing: 1
Well: 12
trow: 1
aroint: 2
offences: 1
deceived: 1
trot: 1
ten: 1
just: 6
halloo: 1
Prepare: 2
shameful: 1
bloody: 7
notice: 2
robbers: 1
winged: 1
respects: 1
tame: 2
home: 10
comforted: 1
Good: 18
marching: 1
Slain: 1
Whereto: 1
holp: 1
Oswald: 3
answers: 1
royalty: 1
holy: 3
hope: 4
fortunes: 6
Bessy: 1
sons: 3
fleshment: 1
quakes: 1
rogues: 4
fathom: 2
Whoop: 1
bend: 2
manifold: 2
husbands: 1
Hast: 3
penury: 1
bounty: 2
spark: 1
Hard: 1
had: 35
mell: 1
soon: 1
outward: 1
protest: 1
material: 1
Gentlemen: 1
predominance: 1
operative: 1
ransom: 1
Hark: 3
shield: 2
pight: 1
Blows: 1
Right: 1
beggars: 3
heavy: 4
dowry: 1
unsightly: 1
Persian: 1
Off: 1
deliver: 2
adulterers: 1
Lend: 2
sinning: 1
whereupon: 1
Mumbling: 1
chambermaids: 1
tart: 1
heave: 1
dullard: 1
knowest: 2
Wherein: 2
gathers: 1
banishment: 3
Still: 2
together: 4
blast: 2
health: 3
headed: 1
Tremble: 1
bent: 2
tale: 3
pandar: 1
Slave: 1
Hath: 4
Topple: 1
evening: 2
Owes: 1
swallows: 1
strike: 7
within: 16
thrill: 1
mend: 1
Were: 5
could: 17
smile: 2
heath: 4
serve: 9
drown: 1
jolly: 1
fine: 2
chud: 1
find: 16
speculations: 1
upward: 2
Lest: 5
lordship: 3
Affectionate: 1
follies: 1
Whereof: 2
pleasant: 2
return: 9
cities: 1
eight: 2
film: 1
snuff: 1
painter: 1
steps: 1
host: 2
flatteries: 1
horn: 1
Have: 12
convenient: 3
true: 14
strengths: 1
gnawn: 1
forget: 2
coronet: 1
heaviness: 1
action: 2
Save: 3
Pins: 1
fires: 2
torch: 1
since: 16
laughter: 2
present: 5
strife: 2
dangerous: 2
soul: 3
flaws: 1
soundest: 1
best: 20
appears: 4
Fiery: 2
pinfold: 1
ratsbane: 1
sooth: 1
advise: 3
Create: 1
pigmy: 1
heard: 11
certainly: 1
friends: 8
Sarum: 1
execution: 1
Sister: 2
persecutions: 1
Upon: 12
sought: 2
rubb: 1
master: 25
stern: 1
writes: 1
mere: 1
Pray: 8
thyself: 5
Each: 2
coming: 8
miscarry: 1
profess: 3
Old: 13
firm: 1
sliver: 1
vices: 3
ignorant: 2
choughs: 1
Fellows: 1
hour: 5
thereat: 1
fire: 15
pieced: 1
cover: 3
howe: 1
distinguish: 1
something: 7
Strip: 1
Says: 1
traitors: 2
howl: 4
hears: 2
rude: 1
repents: 1
Unfriended: 1
wield: 1
beholding: 1
enridged: 1
jewel: 1
One: 5
loathed: 2
goest: 2
Haste: 1
disnatured: 1
pieces: 2
unless: 1
fret: 1
Under: 1
particulars: 1
free: 5
tardiness: 1
sore: 2
invade: 1
unnatural: 6
Weapons: 1
nuncle: 16
labouring: 1
heart: 49
face: 11
Whose: 9
fish: 1
oldest: 1
Display: 1
Wear: 1
DRAMATIS: 1
blushed: 1
excess: 1
Couldst: 1
Full: 1
leaves: 2
melancholy: 1
transform: 1
beseech: 8
restrain: 2
ruin: 1
simular: 1
tavern: 1
marks: 1
commands: 4
Gentleman: 48
five: 9
spill: 1
admirable: 1
please: 9
keeper: 1
immediacy: 1
cradle: 1
bursts: 1
thrice: 1
slept: 2
channels: 1
judging: 1
finding: 1
Does: 3
rough: 2
reasons: 1
rule: 2
girdle: 1
usurps: 1
conflict: 2
answerer: 1
condemn: 2
wonder: 2
Torches: 1
Aside: 13
mainly: 1
wants: 1
weary: 3
lowness: 1
madness: 4
father: 75
moonshine: 1
glares: 1
again: 19
Desire: 1
indeed: 5
answered: 1
trill: 1
sands: 1
professed: 1
Dogs: 1
defuse: 1
ungovern: 1
fair: 9
rapier: 1
fain: 4
prick: 1
preparation: 2
sulphurous: 2
politic: 1
Away: 7
safety: 2
price: 1
sharpness: 1
lubber: 1
zir: 2
profession: 1
loathly: 1
dressed: 2
Bids: 1
imagination: 1
adieu: 1
Captain: 12
arise: 1
zed: 1
Our: 19
operation: 1
doors: 3
fail: 2
honour: 13
ought: 1
Get: 3
Apollo: 2
itself: 16
seize: 2
distress: 1
people: 5
LEAR: 236
privilege: 2
birds: 1
unquietly: 1
foreign: 1
Tearing: 1
Stands: 4
moreover: 1
diest: 1
fall: 9
Strong: 1
Holds: 1
causes: 1
Burgundy: 12
sweetness: 1
nobleness: 1
scalding: 1
cannot: 18
forgot: 2
Infirmity: 1
Knows: 1
Stand: 4
first: 18
pride: 4
threading: 1
runs: 5
astronomical: 1
perfect: 2
prefer: 1
sirrah: 6
Wisdom: 1
conspiracy: 1
chamber: 2
frog: 1
Darnel: 1
spite: 1
depart: 2
Jesters: 1
from: 83
wakest: 1
spits: 1
space: 4
smells: 1
ill: 10
Fields: 1
halter: 1
bosom: 5
yeoman: 3
likeness: 1
bridegroom: 1
pelting: 2
wears: 3
cushions: 1
repair: 1
guiltless: 1
ingrateful: 2
death: 20
jakes: 1
laughs: 1
advice: 1
bestow: 4
every: 14
jealous: 2
paper: 7
moulten: 1
soiled: 1
chiding: 1
array: 2
noiseless: 1
superflux: 1
winds: 5
spake: 2
questrists: 1
enforced: 1
value: 1
pomp: 1
procure: 1
sisters: 11
babes: 1
endeavour: 1
tricks: 1
round: 1
Tell: 4
unsettle: 1
horses: 6
steep: 1
fishermen: 1
inn: 1
Abhorred: 1
Officer: 1
fumiter: 1
Importune: 1
spouse: 1
braggart: 1
resolution: 1
scatter: 1
score: 1
fare: 5
poor: 37
building: 1
Pass: 1
harms: 3
scorn: 1
Might: 4
grief: 7
Belike: 1
Milk: 1
Past: 1
needful: 2
ashamed: 3
excellent: 2
rat: 2
plackets: 1
younger: 2
pool: 1
Rumble: 1
untimely: 1
Vengeance: 1
fortune: 15
charges: 1
shaking: 1
pearls: 1
advancement: 1
endure: 5
pendulous: 1
shortly: 2
Bind: 2
would: 55
Stain: 1
firmly: 1
wherefore: 2
throat: 1
smilingly: 1
Beyond: 2
unkind: 2
vengeances: 1
charged: 4
blamed: 1
posted: 1
retire: 1
French: 2
disquietly: 1
unpublish: 1
Mine: 2
aspect: 1
hasten: 1
close: 2
curled: 2
God: 1
eyeless: 3
Dost: 7
unkindness: 4
minikin: 1
disdain: 2
Sought: 1
swine: 1
paternal: 1
oppression: 1
fast: 2
event: 1
commend: 2
ise: 1
precedent: 1
shallow: 1
prithee: 6
Doth: 3
bolted: 1
Sennet: 1
nine: 2
offended: 2
Earl: 4
lustre: 1
red: 1
pots: 1
fortunately: 1
act: 5
Servant: 11
Winter: 1
post: 2
nuptial: 1
morrow: 4
negligence: 2
offender: 1
weeds: 3
swift: 1
imperfections: 1
authorities: 1
ado: 1
its: 1
holding: 1
remedy: 1
practises: 1
rages: 1
retreat: 1
mutual: 1
unloose: 1
port: 1
shell: 1
exchange: 3
groans: 1
trust: 6
treachers: 1
treachery: 2
soldiers: 3
paste: 1
choose: 2
overtake: 2
dues: 1
miles: 1
breeds: 1
Got: 2
therefore: 3
clovest: 1
drunkards: 2
scope: 1
sorry: 4
Down: 2
bills: 1
Return: 5
embrace: 2
Dover: 15
jest: 1
message: 1
truth: 7
vermin: 1
misconstruction: 1
moves: 1
strikes: 1
pledge: 1
age: 11
crab: 3
Cornwall: 14
faults: 3
Goneril: 12
obedience: 5
rid: 1
Pierce: 1
knighthood: 1
years: 5
practised: 2
punish: 3
Leaving: 1
slack: 2
trade: 3
Witness: 1
moved: 4
rip: 1
property: 1
whistle: 2
odds: 1
shorter: 1
eggs: 1
Strive: 1
nothing: 27
tough: 2
able: 1
urged: 1
hairs: 2
Back: 2
Remembers: 1
mighty: 2
nighted: 1
blessing: 4
Darkness: 1
urges: 1
defects: 1
other: 23
fathers: 3
retain: 2
tranced: 1
attendant: 1
accommodate: 1
speak: 39
disclaims: 1
yield: 2
Myself: 2
ordinance: 1
sacred: 1
add: 1
infected: 1
ruffle: 2
boat: 1
Dwells: 1
ago: 1
Fear: 1
Dearer: 1
undo: 2
future: 1
sickly: 1
Hysterica: 1
tender: 4
intermission: 1
dislocate: 1
acquaintance: 1
duke: 18
body: 9
glove: 2
milky: 1
Untimely: 1
amongst: 1
brains: 2
prevent: 2
cage: 1
scurvy: 1
pregnant: 2
border: 1
usurer: 1
satisfaction: 1
read: 8
already: 2
touch: 3
expense: 1
breathes: 1
prayers: 2
mock: 2
monthly: 1
alas: 1
rod: 1
baseness: 1
rob: 1
favour: 6
simples: 1
headlong: 1
and: 594
rot: 1
treasons: 3
abroad: 2
mills: 1
Feel: 1
Faith: 2
ant: 1
wrongs: 3
drench: 1
all: 92
liars: 1
number: 2
Edmund: 32
Looks: 1
acre: 1
dull: 2
casement: 1
unnecessary: 2
reason: 13
potency: 1
thought: 15
Hangs: 1
taste: 5
comforting: 1
Follow: 4
nativity: 1
naught: 1
reconciles: 1
poverty: 1
Sweet: 2
gentle: 3
goodness: 3
camps: 1
powerful: 1
Repair: 1
deeds: 1
Shake: 1
apt: 2
broke: 1
Make: 7
Spring: 1
senses: 4
dung: 1
royal: 5
Twas: 3
demand: 1
duchess: 2
letter: 27
rings: 1
equalities: 1
cataracts: 1
accuse: 1
Edgar: 10
Sirrah: 4
devil: 1
poisons: 1
Knights: 2
Made: 3
always: 2
quarrels: 1
notion: 1
cried: 1
dukes: 4
therewithal: 1
are: 117
taken: 3
came: 13
patience: 7
where: 31
grace: 19
Stay: 3
pockets: 1
arm: 10
art: 40
broken: 2
Cure: 1
perforce: 5
cruels: 1
Great: 2
champains: 1
Sleep: 1
ask: 7
Had: 5
call: 20
Learn: 1
through: 5
fitter: 1
Pre: 1
strength: 5
castle: 10
musters: 1
armed: 4
imprisoned: 1
offices: 1
run: 5
exeunt: 1
whelk: 1
treacherous: 1
mouse: 1
debate: 1
view: 1
either: 4
respect: 5
preach: 1
any: 18
Mahu: 2
piteous: 1
Look: 10
herring: 1
dolours: 1
REGAN: 86
machinations: 1
watches: 1
Messengers: 1
Into: 5
goddess: 2
Bring: 4
dust: 3
unfitness: 1
flattering: 1
partial: 1
alarum: 1
bleed: 5
those: 11
losest: 1
mopping: 1
bold: 4
Ingratitude: 1
knives: 1
camp: 4
auricular: 1
boil: 1
worth: 9
Yea: 2
watched: 1
yourself: 9
worst: 10
abatement: 1
mother: 6
forbearance: 1
bolt: 1
crow: 1
roundest: 1
boon: 1
mood: 1
disease: 2
benefits: 1
redeems: 1
air: 8
wombed: 1
show: 11
Yet: 8
Natures: 1
Leave: 3
cracked: 1
vigilance: 1
like: 46
trotting: 1
malicious: 1
renounce: 1
pranks: 1
Yes: 8
worse: 9
nursery: 1
gladly: 1
spirits: 4
Burst: 1
Stew: 1
Conferring: 1
defend: 5
twinkled: 1
frown: 3
shod: 1
substance: 2
unto: 3
learned: 3
filth: 1
mantle: 1
Her: 6
lightning: 1
mouth: 6
bond: 4
Pur: 1
beetles: 1
incestuous: 1
duty: 9
stranger: 2
oeillades: 1
Put: 3
Election: 1
suddenly: 2
usage: 1
fancy: 2
clearest: 1
revenged: 1
delicate: 3
sequent: 1
rent: 1
Worthy: 1
cast: 6
cart: 2
subscribed: 2
shirts: 1
grime: 1
Commanded: 1
remotion: 1
plainness: 3
Albion: 1
incline: 1
truly: 3
apothecary: 1
case: 4
Hasten: 1
patrimony: 1
creaking: 1
name: 15
Long: 1
III: 12
unsanctified: 1
rein: 1
trunk: 2
moon: 7
Messenger: 10
aye: 1
Lord: 1
dares: 3
poorly: 1
sumpter: 1
carp: 1
bounds: 1
Pantingly: 1
waist: 1
flesh: 10
hence: 11
merited: 1
alms: 1
care: 7
vouchsafe: 1
Sharp: 1
crying: 1
vile: 7
palace: 4
boot: 3
Prescribe: 1
mischief: 3
dieted: 1
ass: 2
longer: 2
messes: 1
labour: 2
madam: 27
pattern: 1
heels: 4
born: 5
superfluous: 2
epicurism: 1
kill: 10
fangs: 1
reprieve: 1
disorder: 2
Out: 5
His: 17
tailors: 1
parted: 3
revenges: 2
yard: 1
persevere: 1
spurn: 1
shut: 1
diamonds: 1
Dispose: 1
rebel: 2
reeking: 1
simple: 2
influence: 2
mature: 1
Lost: 1
minded: 2
shun: 2
protect: 1
Louder: 1
bidding: 1
varlet: 2
more: 75
dissipation: 1
revenging: 1
rogue: 4
king: 65
kind: 12
Mark: 3
both: 16
most: 43
conductor: 1
phrase: 1
important: 1
images: 1
affection: 3
bones: 2
hollow: 1
eater: 1
menaces: 1
correction: 1
Deserved: 1
daughter: 30
moisten: 1
princess: 1
loosen: 1
roused: 1
bove: 1
generation: 1
crum: 1
largest: 1
captain: 2
forbid: 2
jot: 1
Love: 3
patient: 4
Regan: 19
Shalt: 1
sad: 2
miracle: 2
sheep: 4
compliment: 2
sap: 1
shoe: 1
clout: 2
bows: 1
Diminish: 1
Throned: 1
earnestly: 1
saw: 5
say: 36
also: 1
enough: 7
corrupter: 1
corrupted: 1
gets: 1
kingdom: 12
puppet: 1
EARL: 2
front: 1
You: 59
ours: 2
depraved: 1
chafes: 1
rest: 11
Kneeling: 3
Occasions: 1
awake: 2
boys: 1
kiss: 3
perpetual: 2
Conceive: 1
Shall: 14
squiny: 1
plague: 7
offer: 4
Conspirant: 1
sects: 1
bar: 3
unprized: 1
squint: 1
loath: 1
bay: 1
portend: 2
kneeling: 1
erwhelm: 1
attask: 1
lugg: 1
disasters: 1
disclaim: 1
fruitfully: 1
increase: 1
slenderly: 1
delay: 2
How: 45
mates: 1
tyranny: 2
strong: 3
globe: 1
vantage: 1
deal: 5
abuse: 1
affect: 1
dead: 16
personal: 1
ministers: 1
Sound: 2
Hot: 1
unchaste: 1
sea: 7
sixth: 1
see: 49
angry: 1
servant: 8
wheat: 1
set: 17
cautions: 1
joy: 3
comrade: 1
dear: 20
litter: 1
roofs: 1
benefited: 1
Near: 1
offered: 1
Jupiter: 2
planetary: 1
battle: 6
eyes: 38
words: 9
gauntlet: 1
ACT: 26
earnest: 1
flickering: 1
bed: 8
beg: 4
beauty: 2
broils: 1
needless: 1
fitly: 2
eyed: 1
drive: 2
pricks: 1
depositaries: 1
she: 48
halters: 1
discharge: 1
debt: 1
parts: 3
vines: 1
helps: 1
monger: 1
little: 16
duties: 3
party: 4
Briefly: 1
however: 1
deer: 1
unruly: 1
deep: 4
deed: 1
unhappily: 1
wronged: 1
riddle: 1
Shame: 1
confined: 1
liking: 2
instructs: 1
sin: 1
civet: 1
whores: 1
capable: 1
mouths: 1
over: 5
sir: 94
Hum: 2
wanderers: 1
opulent: 1
living: 1
smilets: 1
ballow: 1
bound: 8
plant: 1
six: 2
false: 6
sit: 5
Knight: 8
football: 1
validity: 1
dinner: 4
wreath: 1
breed: 2
cleaving: 1
Didst: 1
mowing: 1
Gainst: 1
Contending: 1
medicine: 2
cheque: 2
Stop: 2
clears: 1
realm: 2
avoid: 1
fresh: 1
peasant: 3
big: 1
farmer: 1
sat: 1
bid: 5
advanced: 1
bin: 2
counsell: 1
Which: 34
repose: 1
nations: 1
sick: 4
provoking: 1
counsels: 1
slaughter: 1
gossamer: 1
bit: 3
thanks: 2
crows: 1
Harbour: 1
admiration: 1
join: 1
sentence: 1
large: 2
begot: 2
spleen: 1
sky: 1
vain: 3
Dower: 1
foolish: 4
Wounds: 1
contemned: 1
greater: 2
fretful: 1
Ride: 1
drink: 2
begin: 4
Germany: 1
neighbour: 1
forgive: 3
brought: 9
thinking: 1
arrant: 1
Sepulchring: 1
bastardizing: 1
world: 20
strove: 1
Prove: 1
dissolve: 2
bastards: 1
bastardy: 1
highness: 8
side: 7
roguish: 1
waywardness: 1
Prithee: 7
GONERIL: 72
tyrant: 1
break: 7
Resolve: 1
selves: 1
bread: 1
Catch: 1
descry: 2
crown: 4
Told: 2
candle: 1
report: 2
discovery: 1
Fathers: 1
thunders: 1
sigh: 1
steeples: 1
cursed: 1
constant: 2
several: 2
guard: 4
blasts: 2
knees: 1
outrage: 1
powers: 8
bleak: 1
squire: 2
scourged: 1
change: 5
office: 5
angel: 1
Nothing: 7
posts: 1
anger: 3
alive: 4
stands: 6
stroke: 2
scanted: 2
panting: 1
mortified: 1
high: 9
son: 29
sop: 1
falls: 5
punishment: 2
mutations: 1
breeding: 3
century: 1
split: 1
sot: 1
durst: 4
Something: 2
Took: 1
Aloof: 1
duteous: 1
kneel: 2
bad: 2
reproving: 1
guests: 2
Robes: 1
accents: 1
thrown: 2
preserve: 1
extremes: 1
colder: 2
unbutton: 1
madest: 1
nettles: 1
proclaim: 5
lurk: 1
curses: 1
beget: 2
bog: 1
parents: 1
spy: 2
discretion: 1
Before: 7
tenth: 1
boy: 16
behind: 5
bow: 3
pursued: 1
auspicious: 1
loses: 2
suitors: 1
unfortunate: 1
nature: 36
Ursa: 1
raised: 2
cross: 1
contriving: 1
Commend: 1
sol: 1
demanding: 1
alack: 3
ldst: 2
wheel: 4
quarrel: 5
earth: 6
handles: 1
Along: 1
arbitrement: 1
cunning: 4
stool: 1
vary: 1
Friends: 1
stood: 5
control: 2
hereditary: 1
pains: 1
pilgrimage: 1
chance: 5
ponder: 1
behalf: 1
Never: 5
lechers: 1
horrible: 2
friend: 19
extremity: 2
drawn: 5
draws: 1
dependants: 2
pleasure: 7
deny: 4
Herald: 6
lusty: 2
miserable: 1
aright: 2
horse: 12
godson: 1
morning: 1
kite: 1
Gloucester: 36
cheques: 1
compeers: 1
autumn: 1
stopp: 1
Such: 5
tarry: 3
pities: 1
comfort: 5
apprehension: 1
hide: 4
sue: 1
Coming: 1
sub: 1
pitied: 2
sun: 5
serving: 1
undistinguish: 1
incense: 2
lust: 6
curtains: 1
silk: 1
key: 3
Whiles: 2
lords: 6
knights: 10
meats: 1
enemies: 3
Britain: 2
masts: 1
threatened: 1
beloved: 3
makes: 13
offensive: 1
store: 1
ordinary: 1
Nero: 1
confirm: 1
discerning: 1
moulds: 1
Denied: 1
stones: 3
mortality: 1
plainly: 1
ports: 2
Unwhipp: 1
bur: 1
CORDELIA: 42
but: 84
buy: 2
murderers: 1
dislike: 3
quest: 1
confine: 1
adultress: 1
acknowledge: 2
instantly: 2
hill: 4
passion: 4
suffer: 3
unusual: 1
Duchess: 1
different: 1
extreme: 1
sinn: 1
degree: 2
discord: 1
wishes: 1
noises: 1
storm: 9
General: 1
sing: 2
Attendant: 4
Drawing: 1
horns: 1
divinity: 1
hire: 1
doing: 2
mortar: 1
throne: 1
prisoners: 2
BURGUNDY: 8
What: 82
Bringing: 1
News: 1
kin: 1
laying: 1
compulsion: 1
Peace: 5
inflamed: 1
defy: 1
virtue: 7
strokes: 1
bending: 2
Deliver: 1
consumption: 1
skirted: 1
once: 9
farmhouse: 1
speedily: 2
inched: 1
savage: 1
Give: 21
ones: 3
gentleman: 10
seconds: 1
dreadful: 3
sight: 11
wrath: 3
weather: 2
nonny: 1
Remain: 1
between: 9
Throwing: 2
express: 2
levied: 1
PERSONAE: 1
insolent: 1
rightly: 2
natural: 2
monsters: 3
bespoke: 1
joys: 1
Hadst: 2
deprived: 2
consort: 1
Attend: 1
whirlwinds: 1
bosoms: 1
packings: 1
reserved: 1
gods: 25
surgeons: 1
brazed: 1
wear: 9
teeth: 1
weal: 1
impress: 1
weak: 3
derive: 1
leak: 1
distressed: 1
parel: 1
guide: 1
unaccommodated: 1
flay: 1
flax: 1
place: 24
Tooth: 1
brazen: 1
sits: 1
pared: 1
Rive: 1
tremble: 1
figure: 1
conditions: 2
lead: 7
silent: 2
comfortless: 1
When: 40
soothe: 1
observation: 1
raggedness: 1
token: 1
riotous: 4
elements: 1
pelican: 1
scarce: 7
miracles: 1
argument: 1
sith: 2
goal: 1
leap: 2
mingled: 1
flat: 1
bigger: 1
villain: 20
leavetaking: 1
flattery: 1
cease: 4
Keep: 3
hags: 1
plain: 9
brutish: 2
should: 38
only: 5
following: 5
beggar: 5
bourn: 2
Ripeness: 1
natures: 1
flaw: 1
Arraign: 1
Noble: 1
goes: 9
ugly: 1
Pardon: 2
towards: 4
Advise: 2
minces: 1
continents: 1
ranks: 1
bitch: 1
favours: 1
testimony: 1
chanced: 1
person: 4
weakens: 1
covering: 1
herself: 4
Sunshine: 1
acknowledged: 2
fled: 2
canst: 7
hedge: 1
knaves: 3
feature: 1
can: 37
British: 5
cap: 3
justice: 7
ready: 8
lovest: 2
cat: 2
sparrow: 1
smooth: 1
hair: 3
said: 7
illustrious: 1
player: 1
Unnatural: 1
plight: 2
idle: 3
fault: 7
Strike: 3
officers: 1
fearful: 2
cools: 1
bites: 1
accent: 1
clothes: 2
divest: 1
filthy: 2
arguments: 1
motion: 1
Welcome: 2
weep: 9
raineth: 1
mistaking: 1
gloves: 1
livered: 1
spurs: 1
indiscretion: 1
tax: 1
departure: 1
courtier: 1
scared: 1
dissuaded: 1
nights: 1
children: 4
stone: 2
interposes: 1
regards: 1
utter: 1
kissing: 1
safe: 4
tune: 1
match: 2
tired: 1
